*Include, input=model.inp
** ----------------------------------------------------------------
** 
** STEP: explicit_loading
** 
*Step, name=explicit_loading, nlgeom=YES
*Dynamic, Explicit
, 1.0
*Bulk Viscosity
0.06, 1.2
** 
** LOADS
** 
** Name: Load-1   Type: Pressure
***Dsload
**wetted_surface, P, 1.
** 
** User Pressure application
*Dsload
wetted_surface, PNU, 1
** FIELD OUTPUT: F-Output-1
** 
*Output, field, number interval=40
*Node Output, nset=panel.sides
U
*Element Output, directions=YES
EVF
** 
** HISTORY OUTPUT: H-Output-1
** 
*Output, history, frequency=100
*Node Output, nset=panel.disp_monitor
U3, 
*End Step
