*Include, input=model.inp
** ----------------------------------------------------------------
** 
** STEP: Step-1
** 
*Step, name=staticStep, nlgeom=yes, inc=99999999
*Static
0.01,1.0, 1E-5, 0.01
** Interaction: EXAMPLE
*Co-simulation, name=EXAMPLE, program=MULTIPHYSICS
*CO-SIMULATION REGION, IMPORT, TYPE=SURFACE
wetted_surface, CF
*CO-SIMULATION REGION, EXPORT, TYPE=SURFACE
wetted_surface, U
** 
** OUTPUT REQUESTS
** 
*Restart, write, frequency=5
*Output, field, frequency=1
*Node Output
U, CF
*End Step
