*Include, input=model.inp
** ----------------------------------------------------------------
** 
** STEP: explicit_loading
** 
*Step, name=modes
*Frequency
50,,,,,,,
*Output, field
*Node Output
U
*End Step
