dataFile: owc.dat
duration: 1.0
forceScaleFactor: 1.0
lengthScaleFactor: 1.0
analysisType: aeroelastic
freestreamPressure: 9184.134964
freestreamSpeedOfSound: 340.3
freestreamMach: 4.000000
polytropicGasConstant: 1.400000
velocityDirection: [1, 0, 0]
