*Include, input=model.inp
** ----------------------------------------------------------------
** 
** STEP: explicit_loading
** 
*Step, name=modes
*Frequency
6,,,,,,,
*Output, field
*Node Output, nset=panel.disp_monitor
U
*End Step
